<svg xmlns="http://www.w3.org/2000/svg" width="14.769" height="9.12" viewBox="0 0 14.769 9.12">
  <path id="Icon_material-keyboard-arrow-down" data-name="Icon material-keyboard-arrow-down" d="M10.735,11.76,16.385,17.4l5.649-5.637L23.769,13.5,16.385,20.88,9,13.5Z" transform="translate(-9 -11.76)"/>
</svg>
