<svg xmlns="http://www.w3.org/2000/svg" width="28.979" height="24.149" viewBox="0 0 28.979 24.149">
  <g id="Group_17905" data-name="Group 17905" transform="translate(-261.51 -778.959)">
    <path id="Path_393" data-name="Path 393" d="M160.66,55.83A4.83,4.83,0,1,1,155.83,51,4.83,4.83,0,0,1,160.66,55.83Z" transform="translate(120.17 727.959)"/>
    <path id="Path_394" data-name="Path 394" d="M164.44,57.22A3.22,3.22,0,1,1,161.22,54,3.219,3.219,0,0,1,164.44,57.22Z" transform="translate(124.439 729.789)"/>
    <path id="Path_395" data-name="Path 395" d="M162.879,65.44a6.44,6.44,0,0,0-12.879,0v4.83h12.879Z" transform="translate(119.56 732.839)"/>
    <path id="Path_396" data-name="Path 396" d="M152.44,57.22A3.22,3.22,0,1,1,149.22,54,3.219,3.219,0,0,1,152.44,57.22Z" transform="translate(117.12 729.789)"/>
    <path id="Path_397" data-name="Path 397" d="M160.457,69.659V64.83a9.623,9.623,0,0,0-1.206-4.678,4.834,4.834,0,0,1,6.036,4.678v4.83Z" transform="translate(125.203 733.448)"/>
    <path id="Path_398" data-name="Path 398" d="M151.036,60.152a9.623,9.623,0,0,0-1.206,4.678v4.83H145V64.83a4.834,4.834,0,0,1,6.036-4.678Z" transform="translate(116.51 733.448)"/>
  </g>
</svg>
