<svg xmlns="http://www.w3.org/2000/svg" width="49" height="48" viewBox="0 0 49 48">
  <g id="g_" data-name="g+" transform="translate(-0.403 -0.032)">
    <g id="Ellipse_41" data-name="Ellipse 41" transform="translate(0.403 0.032)" fill="none" stroke="#ddd" stroke-width="1">
      <ellipse cx="24.5" cy="24" rx="24.5" ry="24" stroke="none"/>
      <ellipse cx="24.5" cy="24" rx="24" ry="23.5" fill="none"/>
    </g>
    <g id="g_2" data-name="g+" transform="translate(12.403 11.032)">
      <rect id="Rectangle_121" data-name="Rectangle 121" width="26" height="26" fill="none"/>
      <path id="Path_51" data-name="Path 51" d="M10.766,9.642H20.9c0,.657.211,1.1.211,1.753,0,6.355-4.011,10.957-10.344,10.957A11.023,11.023,0,0,1,0,11.176,11.023,11.023,0,0,1,10.766,0a10.215,10.215,0,0,1,7.178,2.849L14.988,5.917a5.529,5.529,0,0,0-4.222-1.753,6.934,6.934,0,0,0-6.755,7.013,6.8,6.8,0,0,0,6.755,7.013,5.813,5.813,0,0,0,6.122-4.821H10.766Z" transform="translate(1.945 1.924)" fill-rule="evenodd"/>
    </g>
  </g>
</svg>
