<svg xmlns="http://www.w3.org/2000/svg" width="25.46" height="20.69" viewBox="0 0 25.46 20.69">
  <path id="Path_213" data-name="Path 213" d="M340.546,583.589v13.757a12.855,12.855,0,0,1,8.911,0V583.589a10.042,10.042,0,0,0-8.911,0Zm11.457,0v13.757a12.855,12.855,0,0,1,8.911,0V583.589a10.042,10.042,0,0,0-8.911,0Zm-1.273-2.206A12.043,12.043,0,0,0,345,580a11.707,11.707,0,0,0-6.433,1.808,1.273,1.273,0,0,0-.569,1.06v16.549a1.273,1.273,0,0,0,1.977,1.06,9.821,9.821,0,0,1,10.049,0,1.275,1.275,0,0,0,1.408,0,9.821,9.821,0,0,1,10.049,0,1.273,1.273,0,0,0,1.977-1.06V582.868a1.273,1.273,0,0,0-.569-1.06A11.707,11.707,0,0,0,356.459,580,12.043,12.043,0,0,0,350.73,581.382Z" transform="translate(-338 -580)" fill-rule="evenodd"/>
</svg>
