<svg xmlns="http://www.w3.org/2000/svg" width="32.474" height="32.855" viewBox="0 0 32.474 32.855">
  <path id="Path_4478" data-name="Path 4478" d="M351.142,773.13a3.13,3.13,0,0,1,3.129-3.13h.156a4.928,4.928,0,0,1,4.928,4.928V781.5h6.183a4.928,4.928,0,0,1,4.407,7.133l-5.75,11.5a4.928,4.928,0,0,1-4.407,2.724h-6.6a4.886,4.886,0,0,1-1.194-.148l-5.983-1.495h-3.083A4.928,4.928,0,0,1,338,796.284v-9.857a4.928,4.928,0,0,1,4.928-4.928h3.5l3.99-5.984A4.3,4.3,0,0,0,351.142,773.13Zm-6.571,11.655h-1.643a1.643,1.643,0,0,0-1.643,1.643v9.857a1.643,1.643,0,0,0,1.643,1.643h1.643Zm3.285,13.5v-13l5.3-7.946a7.585,7.585,0,0,0,1.273-4.051,1.645,1.645,0,0,1,1.644,1.643V781.5h-1.643a1.643,1.643,0,1,0,0,3.286h11.112a1.642,1.642,0,0,1,1.469,2.377l-5.75,11.5a1.64,1.64,0,0,1-1.469.908h-6.6a1.612,1.612,0,0,1-.4-.049Z" transform="translate(-338 -770)" fill="#fff" fill-rule="evenodd"/>
</svg>
