<svg xmlns="http://www.w3.org/2000/svg" width="23.335" height="29.168" viewBox="0 0 23.335 29.168">
  <path id="Path_4515" data-name="Path 4515" d="M436,54.375A4.375,4.375,0,0,1,440.375,50h14.584a4.375,4.375,0,0,1,4.375,4.375V77.71a1.458,1.458,0,0,1-2.11,1.3l-9.557-4.778-9.557,4.778a1.458,1.458,0,0,1-2.11-1.3Zm4.375-1.458a1.459,1.459,0,0,0-1.458,1.458V75.35l8.1-4.049a1.457,1.457,0,0,1,1.3,0l8.1,4.049V54.375a1.459,1.459,0,0,0-1.458-1.458Z" transform="translate(-436 -50)" fill="#fff" fill-rule="evenodd"/>
</svg>
